…
This dataset appears to only go through 2012. The GSS survey has
continued to acquire data since then, repeating the survey in 2014, 2016
and 2018; those data are not in this dataset. Let’s see the breakdown of
data counts by year:

``` r
gss_count_yr <- gss %>%
  group_by(year) %>%
  summarise(count=n())
gss_count_yr
```

    ## # A tibble: 29 x 2
    ##     year count
    ##    <int> <int>
    ##  1  1972  1613
    ##  2  1973  1504
    ##  3  1974  1484
    ##  4  1975  1490
    ##  5  1976  1499
    ##  6  1977  1530
    ##  7  1978  1532
    ##  8  1980  1468
    ##  9  1982  1860
    ## 10  1983  1599
    ## # ... with 19 more rows
…
