…
    ## [1] 44

So 44 unique countries are represented in the dataset. Let’s get a
listing of these countries, and summarise them by their respective
counts in the dataset:

``` r
wine_country <- wine %>%
  group_by(country) %>%
  summarise(Count=n()) %>%
  arrange(-Count)
wine_country
```

    ## # A tibble: 44 x 2
    ##    country   Count
    ##    <fct>     <int>
    ##  1 US        54504
    ##  2 France    22093
    ##  3 Italy     19540
    ##  4 Spain      6645
    ##  5 Portugal   5691
    ##  6 Chile      4472
    ##  7 Argentina  3800
    ##  8 Austria    3345
    ##  9 Australia  2329
    ## 10 Germany    2165
    ## # ... with 34 more rows
…
